{
  "page": 1,
  "results": [
    {
      "backdrop_path": "backdropPath",
      "genre_ids": [1, 2],
      "id": 1,
      "original_language": "en",
      "original_name": "originalName",
      "overview": "overview",
      "popularity": 1.0,
      "poster_path": "posterPath",
      "first_air_date": "firstAirDate",
      "name": "name",
      "vote_average": 1.0,
      "vote_count": 1
    }
  ],
  "total_pages": 18,
  "total_results": 343
}
